{
  "name": "molorus-base",
  "version": "0.1.0",
  "author": "molorus",
  "summary": "Base configuration for home.molorus.com",
  "license": "Apache-2.0",
  "source": "http://bitbucket.org:molorus/molorus-base.git",
  "project_page": "http://bitbucket.org:molorus/molorus-base.git",
  "issues_url": "http://bitbucket.org:molorus/molorus-base.git",
  "dependencies": [
    {"name":"puppetlabs-stdlib","version_requirement":">= 1.0.0"}
  ],
  "data_provider": null
}

